\relax 
\citation{DBLP:journals/ese/TanLLWZZ14}
\citation{Haley08securityrequirements}
\citation{Viega11}
\citation{Viega11}
\citation{Zaman:2011:SVP:1985441.1985457}
\citation{Zaman:2011:SVP:1985441.1985457}
\citation{Mitropoulos2012}
\citation{Zaman:2011:SVP:1985441.1985457}
\citation{DBLP:conf/issre/ThomeSB15}
\citation{DBLP:conf/icse/SharTB13}
\citation{DBLP:conf/msr/GegickRX10}
\citation{DBLP:conf/models/NguyenYHKST15}
\citation{DBLP:conf/icse/YskoutSJ15}
\citation{DBLP:journals/stvr/FeldererZBBP16}
\citation{DBLP:journals/ac/FeldererBJBBP16}
\@writefile{toc}{\contentsline {section}{\numberline {1}Introduction}{\thepage }}
\citation{Bunke2011}
\citation{Feng2016}
\@writefile{toc}{\contentsline {section}{\numberline {2}Study Design}{\thepage }}
\@writefile{toc}{\contentsline {subsection}{\numberline {2.1}Research Questions}{\thepage }}
\@writefile{lof}{\contentsline {figure}{\numberline {1}{\ignorespaces Design of our study}}{\thepage }}
\newlabel{studydesign}{{1}{\thepage }}
\@writefile{toc}{\contentsline {subsection}{\numberline {2.2}Process}{\thepage }}
\@writefile{toc}{\contentsline {section}{\numberline {3}Security bug fix patterns}{\thepage }}
\@writefile{lof}{\contentsline {figure}{\numberline {2}{\ignorespaces Setup of our study}}{\thepage }}
\newlabel{setup}{{2}{\thepage }}
\@writefile{lot}{\contentsline {table}{\numberline {1}{\ignorespaces An overview of the empirical results}}{\thepage }}
\@writefile{lof}{\contentsline {figure}{\numberline {3}{\ignorespaces Common fix patterns of security bugs}}{\thepage }}
\newlabel{fixpattern}{{3}{\thepage }}
\@writefile{lot}{\contentsline {table}{\numberline {2}{\ignorespaces Different types of security bugs and their fix patterns}}{\thepage }}
\@writefile{lof}{\contentsline {figure}{\numberline {4}{\ignorespaces Blocking relation for security bugs}}{\thepage }}
\newlabel{block}{{4}{\thepage }}
\@writefile{toc}{\contentsline {section}{\numberline {4}Process of Security Bug Fixing}{\thepage }}
\@writefile{toc}{\contentsline {subsection}{\numberline {4.1}Block relation in security bug fixes}{\thepage }}
\@writefile{toc}{\contentsline {subsection}{\numberline {4.2}Process of security bug fixes}{\thepage }}
\@writefile{lot}{\contentsline {table}{\numberline {3}{\ignorespaces Blocking bugs for different types of security bugs}}{\thepage }}
\@writefile{lof}{\contentsline {figure}{\numberline {5}{\ignorespaces Fix process of security bugs}}{\thepage }}
\newlabel{fixprocess}{{5}{\thepage }}
\@writefile{lof}{\contentsline {figure}{\numberline {6}{\ignorespaces Fixes for reopened security bugs}}{\thepage }}
\newlabel{reopenfix}{{6}{\thepage }}
\@writefile{toc}{\contentsline {subsection}{\numberline {4.3}Impact of security bug fixes}{\thepage }}
\@writefile{lot}{\contentsline {table}{\numberline {4}{\ignorespaces Fix process of multi-commits for different types of security bugs}}{\thepage }}
\@writefile{lot}{\contentsline {table}{\numberline {5}{\ignorespaces Causes for reopened security bugs for different types of security bugs}}{\thepage }}
\citation{Zaman:2011:SVP:1985441.1985457}
\citation{Witschey:2015:QDA:2786805.2786816}
\citation{DBLP:journals/ese/MartinezM15}
\citation{DBLP:conf/icse/Monperrus14}
\citation{Witschey:2015:QDA:2786805.2786816}
\citation{DBLP:conf/msr/GarciaS14}
\citation{DBLP:journals/infsof/XiaLSWY15}
\citation{DBLP:conf/sigsoft/YinYZPB11}
\citation{DBLP:conf/icse/ZimmermannNGM12}
\citation{DBLP:journals/infsof/XiaLSWY15}
\@writefile{toc}{\contentsline {section}{\numberline {5}Discussion}{\thepage }}
\citation{Smith:2015:QDA:2786805.2786812}
\citation{Witschey:2015:QDA:2786805.2786816}
\citation{Zaman:2011:SVP:1985441.1985457}
\citation{Camilo:2015:BFV:2820518.2820551}
\citation{Zhong:2015:ESR:2818754.2818864}
\citation{Lucia:2012:FL:2664446.2664457}
\citation{Yin:2011:FBB:2025113.2025121}
\citation{Murphy-Hill:2013:DBF:2486788.2486833}
\citation{DBLP:journals/tse/Murphy-HillZBN15}
\citation{Park:2012:ESS:2664446.2664453}
\citation{Pan:2009:TUB:1553586.1553603}
\citation{DBLP:conf/icse/ZimmermannNGM12}
\@writefile{toc}{\contentsline {section}{\numberline {6}Limitations}{\thepage }}
\@writefile{toc}{\contentsline {section}{\numberline {7}Related Work}{\thepage }}
\@writefile{toc}{\contentsline {subsection}{\numberline {7.1}Empirical study on security bugs}{\thepage }}
\@writefile{toc}{\contentsline {subsection}{\numberline {7.2}Empirical study on bug fixes}{\thepage }}
\@writefile{toc}{\contentsline {section}{\numberline {8}Conclusion}{\thepage }}
\bibstyle{abbrv}
\bibdata{typeinst}
\bibcite{Bunke2011}{1}
\bibcite{Camilo:2015:BFV:2820518.2820551}{2}
\bibcite{DBLP:journals/ac/FeldererBJBBP16}{3}
\bibcite{DBLP:journals/stvr/FeldererZBBP16}{4}
\bibcite{Feng2016}{5}
\bibcite{DBLP:conf/msr/GarciaS14}{6}
\bibcite{DBLP:conf/msr/GegickRX10}{7}
\bibcite{Haley08securityrequirements}{8}
\bibcite{Lucia:2012:FL:2664446.2664457}{9}
\bibcite{DBLP:journals/ese/MartinezM15}{10}
\bibcite{Mitropoulos2012}{11}
\bibcite{DBLP:conf/icse/Monperrus14}{12}
\bibcite{Murphy-Hill:2013:DBF:2486788.2486833}{13}
\bibcite{DBLP:journals/tse/Murphy-HillZBN15}{14}
\bibcite{DBLP:conf/models/NguyenYHKST15}{15}
\bibcite{Pan:2009:TUB:1553586.1553603}{16}
\bibcite{Park:2012:ESS:2664446.2664453}{17}
\bibcite{DBLP:conf/icse/SharTB13}{18}
\bibcite{Smith:2015:QDA:2786805.2786812}{19}
\bibcite{DBLP:journals/ese/TanLLWZZ14}{20}
\bibcite{DBLP:conf/issre/ThomeSB15}{21}
\bibcite{Viega11}{22}
\bibcite{Witschey:2015:QDA:2786805.2786816}{23}
\bibcite{DBLP:journals/infsof/XiaLSWY15}{24}
\bibcite{Yin:2011:FBB:2025113.2025121}{25}
\bibcite{DBLP:conf/sigsoft/YinYZPB11}{26}
\bibcite{DBLP:conf/icse/YskoutSJ15}{27}
\bibcite{Zaman:2011:SVP:1985441.1985457}{28}
\bibcite{Zhong:2015:ESR:2818754.2818864}{29}
\bibcite{DBLP:conf/icse/ZimmermannNGM12}{30}
\@writefile{toc}{\contentsline {section}{\numberline {9}References}{\thepage }}
